<svg width="36" height="36" viewBox="0 0 36 36" fill="none" xmlns="http://www.w3.org/2000/svg">
<rect width="36" height="36" rx="4" fill="#003399"/>
<path d="M26.9916 22.7198C26.9916 25.2876 23.1236 27.2256 17.9958 27.2256C12.868 27.2256 9 25.2876 9 22.7198C9 20.5961 11.7133 18.8759 15.6457 18.3754L14.8382 17.8182V17.8181C14.6017 17.6493 14.4732 17.3671 14.5009 17.0779C14.5289 16.7886 14.7089 16.5363 14.9733 16.4157C15.2378 16.2953 15.5464 16.325 15.783 16.4937L18.456 18.3673C18.6597 18.5077 18.7875 18.7339 18.8031 18.9809C18.8168 19.2255 18.719 19.4632 18.5367 19.6269L16.1142 21.8234C15.9647 21.9552 15.772 22.0269 15.573 22.0253C15.3464 22.0269 15.1296 21.933 14.9755 21.7668C14.8299 21.6079 14.7538 21.3971 14.7644 21.1817C14.7751 20.9663 14.8713 20.7641 15.0319 20.6202L15.7346 19.9905C12.6497 20.4105 10.6149 21.654 10.6149 22.7119C10.6149 24.0766 13.7723 25.6028 17.9956 25.6028C22.2189 25.6028 25.3764 24.0766 25.3764 22.7119V22.7117C25.3054 22.2276 25.0287 21.7978 24.6174 21.5327C24.4485 21.4018 24.3383 21.2093 24.3111 20.9975C24.2839 20.7855 24.3418 20.5716 24.4721 20.4022C24.6029 20.2333 24.7953 20.1233 25.0073 20.0961C25.2192 20.0687 25.4332 20.1266 25.6026 20.2569C26.4338 20.8076 26.9502 21.7236 26.9915 22.7198L26.9916 22.7198ZM10.3649 17.7939C10.507 17.9078 10.6834 17.9705 10.8657 17.9714C11.1269 17.9812 11.3765 17.8638 11.5359 17.6565C11.6739 17.4822 11.7341 17.2587 11.702 17.0386C11.67 16.8185 11.5485 16.6213 11.3662 16.4937C10.9549 16.23 10.6804 15.799 10.6153 15.3147C10.6153 14.4345 11.9962 13.4655 14.0473 12.8921C14.2605 12.8425 14.4444 12.7082 14.5569 12.5204C14.6694 12.3326 14.7007 12.1071 14.6438 11.8957C14.5868 11.6842 14.4464 11.5049 14.2548 11.3989C14.0632 11.2931 13.8368 11.2695 13.6273 11.3336C10.7283 12.1411 9.00043 13.5866 9.00043 15.2905C9.01918 16.2977 9.52874 17.2321 10.3651 17.7938L10.3649 17.7939ZM19.3852 14.4749C19.5364 14.6085 19.7324 14.6806 19.9342 14.6768C20.1608 14.6784 20.3777 14.5845 20.5318 14.4183C20.6799 14.259 20.7576 14.0464 20.747 13.829C20.7363 13.6117 20.6383 13.4078 20.4753 13.2636L19.6678 12.5449C23.0835 12.8842 25.3689 14.2004 25.3689 15.339H25.3687C25.299 15.8257 25.0221 16.2583 24.6097 16.526C23.9661 17.0027 23.2409 17.3586 22.4698 17.5758C22.0828 17.7018 21.6891 17.807 21.2908 17.8907C21.0824 17.9354 20.9002 18.0606 20.7835 18.2391C20.6671 18.4175 20.626 18.6349 20.6691 18.8437C20.7068 19.0288 20.8082 19.1948 20.9559 19.3129C21.1033 19.4309 21.2877 19.4935 21.4766 19.4897C21.5328 19.4974 21.59 19.4974 21.6462 19.4897C22.0961 19.3978 22.541 19.2819 22.9786 19.1423C23.9345 18.8653 24.832 18.4165 25.6272 17.8181C26.4401 17.2712 26.9486 16.3739 27 15.3955C27 13.1748 24.1092 11.4305 19.9506 11.0026L20.6532 10.51H20.653C20.8969 10.3427 21.0328 10.0581 21.0097 9.76317C20.9868 9.46846 20.8082 9.20838 20.5415 9.08093C20.2747 8.95331 19.9601 8.978 19.7163 9.14527L17.0435 11.0188C16.842 11.1594 16.7156 11.384 16.6999 11.6292C16.6841 11.8743 16.7809 12.1133 16.9627 12.2784L19.3852 14.4749Z" fill="white"/>
</svg>
