<svg width="36" height="36" viewBox="0 0 36 36" fill="none" xmlns="http://www.w3.org/2000/svg">
<rect width="36" height="36" rx="4" fill="#003399"/>
<path d="M15.9374 9H10.3125C9.58873 9 9 9.58873 9 10.3125V13.6874C9 14.4113 9.58873 15 10.3125 15H15.9374C16.6613 15 17.25 14.4113 17.25 13.6874V10.3125C17.25 9.58873 16.6613 9 15.9374 9Z" fill="white"/>
<path d="M15.9374 16.5H10.3125C9.58873 16.5 9 17.0887 9 17.8126V25.6876C9 26.4113 9.58873 27 10.3125 27H15.9374C16.6613 27 17.25 26.4113 17.25 25.6876V17.8126C17.25 17.0887 16.6613 16.5 15.9374 16.5V16.5Z" fill="white"/>
<path d="M25.6876 21H20.0626C19.3387 21 18.75 21.5887 18.75 22.3126V25.6876C18.75 26.4113 19.3387 27 20.0626 27H25.6876C26.4113 27 27 26.4113 27 25.6876V22.3126C27 21.5887 26.4113 21 25.6876 21V21Z" fill="white"/>
<path d="M25.6876 9H20.0626C19.3387 9 18.75 9.58873 18.75 10.3125V18.1874C18.75 18.9113 19.3387 19.5 20.0626 19.5H25.6876C26.4113 19.5 27 18.9113 27 18.1874V10.3125C27 9.58873 26.4113 9 25.6876 9V9Z" fill="white"/>
</svg>
