<svg width="14" height="14" viewBox="0 0 14 14" fill="none" xmlns="http://www.w3.org/2000/svg">
<path d="M14 6.125H3.35125L8.2425 1.23375L7 0L0 7L7 14L8.23375 12.7663L3.35125 7.875H14V6.125Z" fill="#24347C"/>
</svg>
