<svg width="24" height="24" viewBox="0 0 24 24" fill="none" xmlns="http://www.w3.org/2000/svg">
<path d="M12 20.2089L17.8198 23.7289C18.8856 24.374 20.1898 23.4204 19.9094 22.2143L18.3667 15.5951L23.5134 11.1356C24.453 10.3222 23.9482 8.77964 22.7141 8.68147L15.9407 8.1065L13.2902 1.85194C12.8134 0.716021 11.1866 0.716021 10.7098 1.85194L8.05935 8.09248L1.28591 8.66745C0.051828 8.76561 -0.453025 10.3082 0.486562 11.1216L5.63325 15.5811L4.09065 22.2003C3.81017 23.4063 5.11437 24.3599 6.18017 23.7149L12 20.2089Z" fill="#848B96"/>
</svg>
